…
## References

Cullis, B. R., Smith, A. B., & Coombes, N. E. (2006). On the design of
early generation variety trials with correlated data. Journal of
Agricultural, Biological, and Environmental Statistics, 11(4), 381–393.
https://doi.org/10.1198/108571106X154443

## Examples

``` r
# lme4 model
lettuce_phenotypes |> subset(loc == "L2")
#> # A tibble: 267 × 4
#>    loc   gen   rep       y
#>    <fct> <fct> <fct> <dbl>
#>  1 L2    G1    R1      2  
#>  2 L2    G1    R2      1.5
#>  3 L2    G1    R3      2  
#>  4 L2    G2    R1      2  
#>  5 L2    G2    R2      2  
#>  6 L2    G2    R3      1.5
#>  7 L2    G3    R1      1.5
#>  8 L2    G3    R2      2  
#>  9 L2    G3    R3      2.5
#> 10 L2    G4    R1      3.5
#> # ℹ 257 more rows
…
